{
    "100": {
        "valid": 0,
        "tag": null,
        "0000": null,
        "0001": null,
        "0010": null,
        "0011": null,
        "0100": null,
        "0101": null,
        "0110": null,
        "0111": null
    },
    "101": {
        "valid": 0,
        "tag": null,
        "0000": null,
        "0001": null,
        "0010": null,
        "0011": null,
        "0100": null,
        "0101": null,
        "0110": null,
        "0111": null
    },
    "110": {
        "valid": 0,
        "tag": null,
        "0000": null,
        "0001": null,
        "0010": null,
        "0011": null,
        "0100": null,
        "0101": null,
        "0110": null,
        "0111": null
    },
    "111": {
        "valid": 0,
        "tag": null,
        "0000": null,
        "0001": null,
        "0010": null,
        "0011": null,
        "0100": null,
        "0101": null,
        "0110": null,
        "0111": null
    },
    "1000": {
        "valid": 0,
        "tag": null,
        "0000": null,
        "0001": null,
        "0010": null,
        "0011": null,
        "0100": null,
        "0101": null,
        "0110": null,
        "0111": null
    },
    "1001": {
        "valid": 0,
        "tag": null,
        "0000": null,
        "0001": null,
        "0010": null,
        "0011": null,
        "0100": null,
        "0101": null,
        "0110": null,
        "0111": null
    },
    "1010": {
        "valid": 0,
        "tag": null,
        "0000": null,
        "0001": null,
        "0010": null,
        "0011": null,
        "0100": null,
        "0101": null,
        "0110": null,
        "0111": null
    },
    "1011": {
        "valid": 0,
        "tag": null,
        "0000": null,
        "0001": null,
        "0010": null,
        "0011": null,
        "0100": null,
        "0101": null,
        "0110": null,
        "0111": null
    },
    "1100": {
        "valid": 0,
        "tag": null,
        "0000": null,
        "0001": null,
        "0010": null,
        "0011": null,
        "0100": null,
        "0101": null,
        "0110": null,
        "0111": null
    },
    "1101": {
        "valid": 0,
        "tag": null,
        "0000": null,
        "0001": null,
        "0010": null,
        "0011": null,
        "0100": null,
        "0101": null,
        "0110": null,
        "0111": null
    },
    "1110": {
        "valid": 0,
        "tag": null,
        "0000": null,
        "0001": null,
        "0010": null,
        "0011": null,
        "0100": null,
        "0101": null,
        "0110": null,
        "0111": null
    },
    "1111": {
        "valid": 0,
        "tag": null,
        "0000": null,
        "0001": null,
        "0010": null,
        "0011": null,
        "0100": null,
        "0101": null,
        "0110": null,
        "0111": null
    },
    "000": {
        "valid": 1,
        "tag": "000000000000",
        "0000": "0000",
        "0001": "0002",
        "0010": "0004",
        "0011": "0006",
        "0100": "0008",
        "0101": "000a",
        "0110": "000c",
        "0111": "000e"
    },
    "001": {
        "valid": 1,
        "tag": "000000000010",
        "0000": "0020",
        "0001": "0022",
        "0010": "0024",
        "0011": "0026",
        "0100": "0028",
        "0101": "002a",
        "0110": "002c",
        "0111": "002e"
    },
    "010": {
        "valid": 1,
        "tag": "000000000100",
        "0000": "0040",
        "0001": "0042",
        "0010": "0044",
        "0011": "0046",
        "0100": "0048",
        "0101": "004a",
        "0110": "004c",
        "0111": "004e"
    },
    "011": {
        "valid": 0,
        "tag": null,
        "0000": null,
        "0001": null,
        "0010": null,
        "0011": null,
        "0100": null,
        "0101": null,
        "0110": null,
        "0111": null
    }
}