[
    {
        "hex": "0x0000",
        "bin": "0000000000000000",
        "tag": "00000000",
        "line": "00000",
        "row": "00",
        "isHit": false
    },
    {
        "hex": "0x0002",
        "bin": "0000000000000010",
        "tag": "00000000",
        "line": "00000",
        "row": "01",
        "isHit": true
    },
    {
        "hex": "0x0004",
        "bin": "0000000000000100",
        "tag": "00000000",
        "line": "00000",
        "row": "10",
        "isHit": true
    },
    {
        "hex": "0x0006",
        "bin": "0000000000000110",
        "tag": "00000000",
        "line": "00000",
        "row": "11",
        "isHit": true
    },
    {
        "hex": "0x0008",
        "bin": "0000000000001000",
        "tag": "00000000",
        "line": "00001",
        "row": "00",
        "isHit": false
    },
    {
        "hex": "0x000a",
        "bin": "0000000000001010",
        "tag": "00000000",
        "line": "00001",
        "row": "01",
        "isHit": true
    },
    {
        "hex": "0x000c",
        "bin": "0000000000001100",
        "tag": "00000000",
        "line": "00001",
        "row": "10",
        "isHit": true
    },
    {
        "hex": "0x000e",
        "bin": "0000000000001110",
        "tag": "00000000",
        "line": "00001",
        "row": "11",
        "isHit": true
    },
    {
        "hex": "0x0010",
        "bin": "0000000000010000",
        "tag": "00000000",
        "line": "00010",
        "row": "00",
        "isHit": false
    },
    {
        "hex": "0x0040",
        "bin": "0000000001000000",
        "tag": "00000000",
        "line": "01000",
        "row": "00",
        "isHit": false
    },
    {
        "hex": "0x0012",
        "bin": "0000000000010010",
        "tag": "00000000",
        "line": "00010",
        "row": "01",
        "isHit": true
    },
    {
        "hex": "0x0014",
        "bin": "0000000000010100",
        "tag": "00000000",
        "line": "00010",
        "row": "10",
        "isHit": true
    },
    {
        "hex": "0x0016",
        "bin": "0000000000010110",
        "tag": "00000000",
        "line": "00010",
        "row": "11",
        "isHit": true
    },
    {
        "hex": "0x002e",
        "bin": "0000000000101110",
        "tag": "00000000",
        "line": "00101",
        "row": "11",
        "isHit": false
    },
    {
        "hex": "0x0018",
        "bin": "0000000000011000",
        "tag": "00000000",
        "line": "00011",
        "row": "00",
        "isHit": false
    },
    {
        "hex": "0x001a",
        "bin": "0000000000011010",
        "tag": "00000000",
        "line": "00011",
        "row": "01",
        "isHit": true
    },
    {
        "hex": "0x002c",
        "bin": "0000000000101100",
        "tag": "00000000",
        "line": "00101",
        "row": "10",
        "isHit": true
    },
    {
        "hex": "0x001c",
        "bin": "0000000000011100",
        "tag": "00000000",
        "line": "00011",
        "row": "10",
        "isHit": true
    },
    {
        "hex": "0x001e",
        "bin": "0000000000011110",
        "tag": "00000000",
        "line": "00011",
        "row": "11",
        "isHit": true
    },
    {
        "hex": "0x0020",
        "bin": "0000000000100000",
        "tag": "00000000",
        "line": "00100",
        "row": "00",
        "isHit": false
    },
    {
        "hex": "0x0030",
        "bin": "0000000000110000",
        "tag": "00000000",
        "line": "00110",
        "row": "00",
        "isHit": false
    },
    {
        "hex": "0x0022",
        "bin": "0000000000100010",
        "tag": "00000000",
        "line": "00100",
        "row": "01",
        "isHit": true
    },
    {
        "hex": "0x0024",
        "bin": "0000000000100100",
        "tag": "00000000",
        "line": "00100",
        "row": "10",
        "isHit": true
    },
    {
        "hex": "0x0026",
        "bin": "0000000000100110",
        "tag": "00000000",
        "line": "00100",
        "row": "11",
        "isHit": true
    },
    {
        "hex": "0x0028",
        "bin": "0000000000101000",
        "tag": "00000000",
        "line": "00101",
        "row": "00",
        "isHit": true
    },
    {
        "hex": "0x0004",
        "bin": "0000000000000100",
        "tag": "00000000",
        "line": "00000",
        "row": "10",
        "isHit": true
    },
    {
        "hex": "0x0006",
        "bin": "0000000000000110",
        "tag": "00000000",
        "line": "00000",
        "row": "11",
        "isHit": true
    },
    {
        "hex": "0x0008",
        "bin": "0000000000001000",
        "tag": "00000000",
        "line": "00001",
        "row": "00",
        "isHit": true
    },
    {
        "hex": "0x000a",
        "bin": "0000000000001010",
        "tag": "00000000",
        "line": "00001",
        "row": "01",
        "isHit": true
    },
    {
        "hex": "0x000c",
        "bin": "0000000000001100",
        "tag": "00000000",
        "line": "00001",
        "row": "10",
        "isHit": true
    },
    {
        "hex": "0x000e",
        "bin": "0000000000001110",
        "tag": "00000000",
        "line": "00001",
        "row": "11",
        "isHit": true
    },
    {
        "hex": "0x0010",
        "bin": "0000000000010000",
        "tag": "00000000",
        "line": "00010",
        "row": "00",
        "isHit": true
    },
    {
        "hex": "0x0040",
        "bin": "0000000001000000",
        "tag": "00000000",
        "line": "01000",
        "row": "00",
        "isHit": true
    },
    {
        "hex": "0x0012",
        "bin": "0000000000010010",
        "tag": "00000000",
        "line": "00010",
        "row": "01",
        "isHit": true
    },
    {
        "hex": "0x0014",
        "bin": "0000000000010100",
        "tag": "00000000",
        "line": "00010",
        "row": "10",
        "isHit": true
    },
    {
        "hex": "0x0016",
        "bin": "0000000000010110",
        "tag": "00000000",
        "line": "00010",
        "row": "11",
        "isHit": true
    },
    {
        "hex": "0x0030",
        "bin": "0000000000110000",
        "tag": "00000000",
        "line": "00110",
        "row": "00",
        "isHit": true
    },
    {
        "hex": "0x0018",
        "bin": "0000000000011000",
        "tag": "00000000",
        "line": "00011",
        "row": "00",
        "isHit": true
    },
    {
        "hex": "0x001a",
        "bin": "0000000000011010",
        "tag": "00000000",
        "line": "00011",
        "row": "01",
        "isHit": true
    },
    {
        "hex": "0x002e",
        "bin": "0000000000101110",
        "tag": "00000000",
        "line": "00101",
        "row": "11",
        "isHit": true
    },
    {
        "hex": "0x001c",
        "bin": "0000000000011100",
        "tag": "00000000",
        "line": "00011",
        "row": "10",
        "isHit": true
    },
    {
        "hex": "0x001e",
        "bin": "0000000000011110",
        "tag": "00000000",
        "line": "00011",
        "row": "11",
        "isHit": true
    },
    {
        "hex": "0x0020",
        "bin": "0000000000100000",
        "tag": "00000000",
        "line": "00100",
        "row": "00",
        "isHit": true
    },
    {
        "hex": "0x0032",
        "bin": "0000000000110010",
        "tag": "00000000",
        "line": "00110",
        "row": "01",
        "isHit": true
    },
    {
        "hex": "0x0022",
        "bin": "0000000000100010",
        "tag": "00000000",
        "line": "00100",
        "row": "01",
        "isHit": true
    },
    {
        "hex": "0x0024",
        "bin": "0000000000100100",
        "tag": "00000000",
        "line": "00100",
        "row": "10",
        "isHit": true
    },
    {
        "hex": "0x0026",
        "bin": "0000000000100110",
        "tag": "00000000",
        "line": "00100",
        "row": "11",
        "isHit": true
    },
    {
        "hex": "0x0028",
        "bin": "0000000000101000",
        "tag": "00000000",
        "line": "00101",
        "row": "00",
        "isHit": true
    },
    {
        "hex": "0x0004",
        "bin": "0000000000000100",
        "tag": "00000000",
        "line": "00000",
        "row": "10",
        "isHit": true
    },
    {
        "hex": "0x0006",
        "bin": "0000000000000110",
        "tag": "00000000",
        "line": "00000",
        "row": "11",
        "isHit": true
    },
    {
        "hex": "0x0008",
        "bin": "0000000000001000",
        "tag": "00000000",
        "line": "00001",
        "row": "00",
        "isHit": true
    },
    {
        "hex": "0x000a",
        "bin": "0000000000001010",
        "tag": "00000000",
        "line": "00001",
        "row": "01",
        "isHit": true
    },
    {
        "hex": "0x000c",
        "bin": "0000000000001100",
        "tag": "00000000",
        "line": "00001",
        "row": "10",
        "isHit": true
    },
    {
        "hex": "0x000e",
        "bin": "0000000000001110",
        "tag": "00000000",
        "line": "00001",
        "row": "11",
        "isHit": true
    },
    {
        "hex": "0x0010",
        "bin": "0000000000010000",
        "tag": "00000000",
        "line": "00010",
        "row": "00",
        "isHit": true
    },
    {
        "hex": "0x0040",
        "bin": "0000000001000000",
        "tag": "00000000",
        "line": "01000",
        "row": "00",
        "isHit": true
    },
    {
        "hex": "0x0012",
        "bin": "0000000000010010",
        "tag": "00000000",
        "line": "00010",
        "row": "01",
        "isHit": true
    },
    {
        "hex": "0x0014",
        "bin": "0000000000010100",
        "tag": "00000000",
        "line": "00010",
        "row": "10",
        "isHit": true
    },
    {
        "hex": "0x0016",
        "bin": "0000000000010110",
        "tag": "00000000",
        "line": "00010",
        "row": "11",
        "isHit": true
    },
    {
        "hex": "0x0032",
        "bin": "0000000000110010",
        "tag": "00000000",
        "line": "00110",
        "row": "01",
        "isHit": true
    },
    {
        "hex": "0x0018",
        "bin": "0000000000011000",
        "tag": "00000000",
        "line": "00011",
        "row": "00",
        "isHit": true
    },
    {
        "hex": "0x001a",
        "bin": "0000000000011010",
        "tag": "00000000",
        "line": "00011",
        "row": "01",
        "isHit": true
    },
    {
        "hex": "0x0030",
        "bin": "0000000000110000",
        "tag": "00000000",
        "line": "00110",
        "row": "00",
        "isHit": true
    },
    {
        "hex": "0x001c",
        "bin": "0000000000011100",
        "tag": "00000000",
        "line": "00011",
        "row": "10",
        "isHit": true
    },
    {
        "hex": "0x001e",
        "bin": "0000000000011110",
        "tag": "00000000",
        "line": "00011",
        "row": "11",
        "isHit": true
    },
    {
        "hex": "0x0020",
        "bin": "0000000000100000",
        "tag": "00000000",
        "line": "00100",
        "row": "00",
        "isHit": true
    },
    {
        "hex": "0x0034",
        "bin": "0000000000110100",
        "tag": "00000000",
        "line": "00110",
        "row": "10",
        "isHit": true
    },
    {
        "hex": "0x0022",
        "bin": "0000000000100010",
        "tag": "00000000",
        "line": "00100",
        "row": "01",
        "isHit": true
    },
    {
        "hex": "0x0024",
        "bin": "0000000000100100",
        "tag": "00000000",
        "line": "00100",
        "row": "10",
        "isHit": true
    },
    {
        "hex": "0x0026",
        "bin": "0000000000100110",
        "tag": "00000000",
        "line": "00100",
        "row": "11",
        "isHit": true
    },
    {
        "hex": "0x0028",
        "bin": "0000000000101000",
        "tag": "00000000",
        "line": "00101",
        "row": "00",
        "isHit": true
    },
    {
        "hex": "0x0004",
        "bin": "0000000000000100",
        "tag": "00000000",
        "line": "00000",
        "row": "10",
        "isHit": true
    },
    {
        "hex": "0x0006",
        "bin": "0000000000000110",
        "tag": "00000000",
        "line": "00000",
        "row": "11",
        "isHit": true
    },
    {
        "hex": "0x0008",
        "bin": "0000000000001000",
        "tag": "00000000",
        "line": "00001",
        "row": "00",
        "isHit": true
    },
    {
        "hex": "0x000a",
        "bin": "0000000000001010",
        "tag": "00000000",
        "line": "00001",
        "row": "01",
        "isHit": true
    },
    {
        "hex": "0x000c",
        "bin": "0000000000001100",
        "tag": "00000000",
        "line": "00001",
        "row": "10",
        "isHit": true
    },
    {
        "hex": "0x000e",
        "bin": "0000000000001110",
        "tag": "00000000",
        "line": "00001",
        "row": "11",
        "isHit": true
    },
    {
        "hex": "0x0010",
        "bin": "0000000000010000",
        "tag": "00000000",
        "line": "00010",
        "row": "00",
        "isHit": true
    },
    {
        "hex": "0x0040",
        "bin": "0000000001000000",
        "tag": "00000000",
        "line": "01000",
        "row": "00",
        "isHit": true
    },
    {
        "hex": "0x0012",
        "bin": "0000000000010010",
        "tag": "00000000",
        "line": "00010",
        "row": "01",
        "isHit": true
    },
    {
        "hex": "0x0014",
        "bin": "0000000000010100",
        "tag": "00000000",
        "line": "00010",
        "row": "10",
        "isHit": true
    },
    {
        "hex": "0x0016",
        "bin": "0000000000010110",
        "tag": "00000000",
        "line": "00010",
        "row": "11",
        "isHit": true
    },
    {
        "hex": "0x0034",
        "bin": "0000000000110100",
        "tag": "00000000",
        "line": "00110",
        "row": "10",
        "isHit": true
    },
    {
        "hex": "0x0018",
        "bin": "0000000000011000",
        "tag": "00000000",
        "line": "00011",
        "row": "00",
        "isHit": true
    },
    {
        "hex": "0x001a",
        "bin": "0000000000011010",
        "tag": "00000000",
        "line": "00011",
        "row": "01",
        "isHit": true
    },
    {
        "hex": "0x0032",
        "bin": "0000000000110010",
        "tag": "00000000",
        "line": "00110",
        "row": "01",
        "isHit": true
    },
    {
        "hex": "0x001c",
        "bin": "0000000000011100",
        "tag": "00000000",
        "line": "00011",
        "row": "10",
        "isHit": true
    },
    {
        "hex": "0x001e",
        "bin": "0000000000011110",
        "tag": "00000000",
        "line": "00011",
        "row": "11",
        "isHit": true
    },
    {
        "hex": "0x0020",
        "bin": "0000000000100000",
        "tag": "00000000",
        "line": "00100",
        "row": "00",
        "isHit": true
    },
    {
        "hex": "0x0036",
        "bin": "0000000000110110",
        "tag": "00000000",
        "line": "00110",
        "row": "11",
        "isHit": true
    },
    {
        "hex": "0x0022",
        "bin": "0000000000100010",
        "tag": "00000000",
        "line": "00100",
        "row": "01",
        "isHit": true
    },
    {
        "hex": "0x0024",
        "bin": "0000000000100100",
        "tag": "00000000",
        "line": "00100",
        "row": "10",
        "isHit": true
    },
    {
        "hex": "0x0026",
        "bin": "0000000000100110",
        "tag": "00000000",
        "line": "00100",
        "row": "11",
        "isHit": true
    },
    {
        "hex": "0x0028",
        "bin": "0000000000101000",
        "tag": "00000000",
        "line": "00101",
        "row": "00",
        "isHit": true
    },
    {
        "hex": "0x0004",
        "bin": "0000000000000100",
        "tag": "00000000",
        "line": "00000",
        "row": "10",
        "isHit": true
    },
    {
        "hex": "0x0006",
        "bin": "0000000000000110",
        "tag": "00000000",
        "line": "00000",
        "row": "11",
        "isHit": true
    },
    {
        "hex": "0x0008",
        "bin": "0000000000001000",
        "tag": "00000000",
        "line": "00001",
        "row": "00",
        "isHit": true
    },
    {
        "hex": "0x000a",
        "bin": "0000000000001010",
        "tag": "00000000",
        "line": "00001",
        "row": "01",
        "isHit": true
    },
    {
        "hex": "0x000c",
        "bin": "0000000000001100",
        "tag": "00000000",
        "line": "00001",
        "row": "10",
        "isHit": true
    },
    {
        "hex": "0x000e",
        "bin": "0000000000001110",
        "tag": "00000000",
        "line": "00001",
        "row": "11",
        "isHit": true
    },
    {
        "hex": "0x0010",
        "bin": "0000000000010000",
        "tag": "00000000",
        "line": "00010",
        "row": "00",
        "isHit": true
    },
    {
        "hex": "0x0040",
        "bin": "0000000001000000",
        "tag": "00000000",
        "line": "01000",
        "row": "00",
        "isHit": true
    },
    {
        "hex": "0x0012",
        "bin": "0000000000010010",
        "tag": "00000000",
        "line": "00010",
        "row": "01",
        "isHit": true
    },
    {
        "hex": "0x0014",
        "bin": "0000000000010100",
        "tag": "00000000",
        "line": "00010",
        "row": "10",
        "isHit": true
    },
    {
        "hex": "0x0016",
        "bin": "0000000000010110",
        "tag": "00000000",
        "line": "00010",
        "row": "11",
        "isHit": true
    },
    {
        "hex": "0x0036",
        "bin": "0000000000110110",
        "tag": "00000000",
        "line": "00110",
        "row": "11",
        "isHit": true
    },
    {
        "hex": "0x0018",
        "bin": "0000000000011000",
        "tag": "00000000",
        "line": "00011",
        "row": "00",
        "isHit": true
    },
    {
        "hex": "0x001a",
        "bin": "0000000000011010",
        "tag": "00000000",
        "line": "00011",
        "row": "01",
        "isHit": true
    },
    {
        "hex": "0x0034",
        "bin": "0000000000110100",
        "tag": "00000000",
        "line": "00110",
        "row": "10",
        "isHit": true
    },
    {
        "hex": "0x001c",
        "bin": "0000000000011100",
        "tag": "00000000",
        "line": "00011",
        "row": "10",
        "isHit": true
    },
    {
        "hex": "0x001e",
        "bin": "0000000000011110",
        "tag": "00000000",
        "line": "00011",
        "row": "11",
        "isHit": true
    },
    {
        "hex": "0x0020",
        "bin": "0000000000100000",
        "tag": "00000000",
        "line": "00100",
        "row": "00",
        "isHit": true
    },
    {
        "hex": "0x0038",
        "bin": "0000000000111000",
        "tag": "00000000",
        "line": "00111",
        "row": "00",
        "isHit": false
    },
    {
        "hex": "0x0022",
        "bin": "0000000000100010",
        "tag": "00000000",
        "line": "00100",
        "row": "01",
        "isHit": true
    },
    {
        "hex": "0x0024",
        "bin": "0000000000100100",
        "tag": "00000000",
        "line": "00100",
        "row": "10",
        "isHit": true
    },
    {
        "hex": "0x0026",
        "bin": "0000000000100110",
        "tag": "00000000",
        "line": "00100",
        "row": "11",
        "isHit": true
    },
    {
        "hex": "0x0028",
        "bin": "0000000000101000",
        "tag": "00000000",
        "line": "00101",
        "row": "00",
        "isHit": true
    },
    {
        "hex": "0x0004",
        "bin": "0000000000000100",
        "tag": "00000000",
        "line": "00000",
        "row": "10",
        "isHit": true
    },
    {
        "hex": "0x0006",
        "bin": "0000000000000110",
        "tag": "00000000",
        "line": "00000",
        "row": "11",
        "isHit": true
    },
    {
        "hex": "0x0008",
        "bin": "0000000000001000",
        "tag": "00000000",
        "line": "00001",
        "row": "00",
        "isHit": true
    },
    {
        "hex": "0x000a",
        "bin": "0000000000001010",
        "tag": "00000000",
        "line": "00001",
        "row": "01",
        "isHit": true
    },
    {
        "hex": "0x000c",
        "bin": "0000000000001100",
        "tag": "00000000",
        "line": "00001",
        "row": "10",
        "isHit": true
    },
    {
        "hex": "0x000e",
        "bin": "0000000000001110",
        "tag": "00000000",
        "line": "00001",
        "row": "11",
        "isHit": true
    },
    {
        "hex": "0x0010",
        "bin": "0000000000010000",
        "tag": "00000000",
        "line": "00010",
        "row": "00",
        "isHit": true
    },
    {
        "hex": "0x0040",
        "bin": "0000000001000000",
        "tag": "00000000",
        "line": "01000",
        "row": "00",
        "isHit": true
    },
    {
        "hex": "0x0012",
        "bin": "0000000000010010",
        "tag": "00000000",
        "line": "00010",
        "row": "01",
        "isHit": true
    },
    {
        "hex": "0x0014",
        "bin": "0000000000010100",
        "tag": "00000000",
        "line": "00010",
        "row": "10",
        "isHit": true
    },
    {
        "hex": "0x0016",
        "bin": "0000000000010110",
        "tag": "00000000",
        "line": "00010",
        "row": "11",
        "isHit": true
    },
    {
        "hex": "0x0038",
        "bin": "0000000000111000",
        "tag": "00000000",
        "line": "00111",
        "row": "00",
        "isHit": true
    },
    {
        "hex": "0x0018",
        "bin": "0000000000011000",
        "tag": "00000000",
        "line": "00011",
        "row": "00",
        "isHit": true
    },
    {
        "hex": "0x001a",
        "bin": "0000000000011010",
        "tag": "00000000",
        "line": "00011",
        "row": "01",
        "isHit": true
    },
    {
        "hex": "0x0036",
        "bin": "0000000000110110",
        "tag": "00000000",
        "line": "00110",
        "row": "11",
        "isHit": true
    },
    {
        "hex": "0x001c",
        "bin": "0000000000011100",
        "tag": "00000000",
        "line": "00011",
        "row": "10",
        "isHit": true
    },
    {
        "hex": "0x001e",
        "bin": "0000000000011110",
        "tag": "00000000",
        "line": "00011",
        "row": "11",
        "isHit": true
    },
    {
        "hex": "0x0020",
        "bin": "0000000000100000",
        "tag": "00000000",
        "line": "00100",
        "row": "00",
        "isHit": true
    },
    {
        "hex": "0x003a",
        "bin": "0000000000111010",
        "tag": "00000000",
        "line": "00111",
        "row": "01",
        "isHit": true
    },
    {
        "hex": "0x0022",
        "bin": "0000000000100010",
        "tag": "00000000",
        "line": "00100",
        "row": "01",
        "isHit": true
    },
    {
        "hex": "0x0024",
        "bin": "0000000000100100",
        "tag": "00000000",
        "line": "00100",
        "row": "10",
        "isHit": true
    },
    {
        "hex": "0x0026",
        "bin": "0000000000100110",
        "tag": "00000000",
        "line": "00100",
        "row": "11",
        "isHit": true
    },
    {
        "hex": "0x0028",
        "bin": "0000000000101000",
        "tag": "00000000",
        "line": "00101",
        "row": "00",
        "isHit": true
    },
    {
        "hex": "0x0004",
        "bin": "0000000000000100",
        "tag": "00000000",
        "line": "00000",
        "row": "10",
        "isHit": true
    },
    {
        "hex": "0x0006",
        "bin": "0000000000000110",
        "tag": "00000000",
        "line": "00000",
        "row": "11",
        "isHit": true
    },
    {
        "hex": "0x0008",
        "bin": "0000000000001000",
        "tag": "00000000",
        "line": "00001",
        "row": "00",
        "isHit": true
    },
    {
        "hex": "0x000a",
        "bin": "0000000000001010",
        "tag": "00000000",
        "line": "00001",
        "row": "01",
        "isHit": true
    },
    {
        "hex": "0x000c",
        "bin": "0000000000001100",
        "tag": "00000000",
        "line": "00001",
        "row": "10",
        "isHit": true
    },
    {
        "hex": "0x000e",
        "bin": "0000000000001110",
        "tag": "00000000",
        "line": "00001",
        "row": "11",
        "isHit": true
    },
    {
        "hex": "0x0010",
        "bin": "0000000000010000",
        "tag": "00000000",
        "line": "00010",
        "row": "00",
        "isHit": true
    },
    {
        "hex": "0x0040",
        "bin": "0000000001000000",
        "tag": "00000000",
        "line": "01000",
        "row": "00",
        "isHit": true
    },
    {
        "hex": "0x0012",
        "bin": "0000000000010010",
        "tag": "00000000",
        "line": "00010",
        "row": "01",
        "isHit": true
    },
    {
        "hex": "0x0014",
        "bin": "0000000000010100",
        "tag": "00000000",
        "line": "00010",
        "row": "10",
        "isHit": true
    },
    {
        "hex": "0x0016",
        "bin": "0000000000010110",
        "tag": "00000000",
        "line": "00010",
        "row": "11",
        "isHit": true
    },
    {
        "hex": "0x003a",
        "bin": "0000000000111010",
        "tag": "00000000",
        "line": "00111",
        "row": "01",
        "isHit": true
    },
    {
        "hex": "0x0018",
        "bin": "0000000000011000",
        "tag": "00000000",
        "line": "00011",
        "row": "00",
        "isHit": true
    },
    {
        "hex": "0x001a",
        "bin": "0000000000011010",
        "tag": "00000000",
        "line": "00011",
        "row": "01",
        "isHit": true
    },
    {
        "hex": "0x0038",
        "bin": "0000000000111000",
        "tag": "00000000",
        "line": "00111",
        "row": "00",
        "isHit": true
    },
    {
        "hex": "0x001c",
        "bin": "0000000000011100",
        "tag": "00000000",
        "line": "00011",
        "row": "10",
        "isHit": true
    },
    {
        "hex": "0x001e",
        "bin": "0000000000011110",
        "tag": "00000000",
        "line": "00011",
        "row": "11",
        "isHit": true
    },
    {
        "hex": "0x0020",
        "bin": "0000000000100000",
        "tag": "00000000",
        "line": "00100",
        "row": "00",
        "isHit": true
    },
    {
        "hex": "0x003c",
        "bin": "0000000000111100",
        "tag": "00000000",
        "line": "00111",
        "row": "10",
        "isHit": true
    },
    {
        "hex": "0x0022",
        "bin": "0000000000100010",
        "tag": "00000000",
        "line": "00100",
        "row": "01",
        "isHit": true
    },
    {
        "hex": "0x0024",
        "bin": "0000000000100100",
        "tag": "00000000",
        "line": "00100",
        "row": "10",
        "isHit": true
    },
    {
        "hex": "0x0026",
        "bin": "0000000000100110",
        "tag": "00000000",
        "line": "00100",
        "row": "11",
        "isHit": true
    },
    {
        "hex": "0x0028",
        "bin": "0000000000101000",
        "tag": "00000000",
        "line": "00101",
        "row": "00",
        "isHit": true
    },
    {
        "hex": "0x0004",
        "bin": "0000000000000100",
        "tag": "00000000",
        "line": "00000",
        "row": "10",
        "isHit": true
    },
    {
        "hex": "0x0006",
        "bin": "0000000000000110",
        "tag": "00000000",
        "line": "00000",
        "row": "11",
        "isHit": true
    },
    {
        "hex": "0x0008",
        "bin": "0000000000001000",
        "tag": "00000000",
        "line": "00001",
        "row": "00",
        "isHit": true
    },
    {
        "hex": "0x000a",
        "bin": "0000000000001010",
        "tag": "00000000",
        "line": "00001",
        "row": "01",
        "isHit": true
    },
    {
        "hex": "0x000c",
        "bin": "0000000000001100",
        "tag": "00000000",
        "line": "00001",
        "row": "10",
        "isHit": true
    },
    {
        "hex": "0x000e",
        "bin": "0000000000001110",
        "tag": "00000000",
        "line": "00001",
        "row": "11",
        "isHit": true
    },
    {
        "hex": "0x0010",
        "bin": "0000000000010000",
        "tag": "00000000",
        "line": "00010",
        "row": "00",
        "isHit": true
    },
    {
        "hex": "0x0040",
        "bin": "0000000001000000",
        "tag": "00000000",
        "line": "01000",
        "row": "00",
        "isHit": true
    },
    {
        "hex": "0x0012",
        "bin": "0000000000010010",
        "tag": "00000000",
        "line": "00010",
        "row": "01",
        "isHit": true
    },
    {
        "hex": "0x0014",
        "bin": "0000000000010100",
        "tag": "00000000",
        "line": "00010",
        "row": "10",
        "isHit": true
    },
    {
        "hex": "0x0016",
        "bin": "0000000000010110",
        "tag": "00000000",
        "line": "00010",
        "row": "11",
        "isHit": true
    },
    {
        "hex": "0x003c",
        "bin": "0000000000111100",
        "tag": "00000000",
        "line": "00111",
        "row": "10",
        "isHit": true
    },
    {
        "hex": "0x0018",
        "bin": "0000000000011000",
        "tag": "00000000",
        "line": "00011",
        "row": "00",
        "isHit": true
    },
    {
        "hex": "0x001a",
        "bin": "0000000000011010",
        "tag": "00000000",
        "line": "00011",
        "row": "01",
        "isHit": true
    },
    {
        "hex": "0x003a",
        "bin": "0000000000111010",
        "tag": "00000000",
        "line": "00111",
        "row": "01",
        "isHit": true
    },
    {
        "hex": "0x001c",
        "bin": "0000000000011100",
        "tag": "00000000",
        "line": "00011",
        "row": "10",
        "isHit": true
    },
    {
        "hex": "0x001e",
        "bin": "0000000000011110",
        "tag": "00000000",
        "line": "00011",
        "row": "11",
        "isHit": true
    },
    {
        "hex": "0x0020",
        "bin": "0000000000100000",
        "tag": "00000000",
        "line": "00100",
        "row": "00",
        "isHit": true
    },
    {
        "hex": "0x003e",
        "bin": "0000000000111110",
        "tag": "00000000",
        "line": "00111",
        "row": "11",
        "isHit": true
    },
    {
        "hex": "0x0022",
        "bin": "0000000000100010",
        "tag": "00000000",
        "line": "00100",
        "row": "01",
        "isHit": true
    },
    {
        "hex": "0x0024",
        "bin": "0000000000100100",
        "tag": "00000000",
        "line": "00100",
        "row": "10",
        "isHit": true
    },
    {
        "hex": "0x0026",
        "bin": "0000000000100110",
        "tag": "00000000",
        "line": "00100",
        "row": "11",
        "isHit": true
    },
    {
        "hex": "0x0028",
        "bin": "0000000000101000",
        "tag": "00000000",
        "line": "00101",
        "row": "00",
        "isHit": true
    },
    {
        "hex": "0x0004",
        "bin": "0000000000000100",
        "tag": "00000000",
        "line": "00000",
        "row": "10",
        "isHit": true
    },
    {
        "hex": "0x0006",
        "bin": "0000000000000110",
        "tag": "00000000",
        "line": "00000",
        "row": "11",
        "isHit": true
    },
    {
        "hex": "0x0008",
        "bin": "0000000000001000",
        "tag": "00000000",
        "line": "00001",
        "row": "00",
        "isHit": true
    },
    {
        "hex": "0x000a",
        "bin": "0000000000001010",
        "tag": "00000000",
        "line": "00001",
        "row": "01",
        "isHit": true
    },
    {
        "hex": "0x002a",
        "bin": "0000000000101010",
        "tag": "00000000",
        "line": "00101",
        "row": "01",
        "isHit": true
    }
]